{
  "Datasource PostgreSQL": {
    "prefix": [
      "datasource-postgresql"
    ],
    "description": "Add datasource to your configuration",
    "body": [
      "quarkus.datasource.db-kind = postgresql",
      "quarkus.datasource.${1|jdbc,reactive|}.url = jdbc:postgresql://${2:db}:${3:5432}/${4:db}",
      "quarkus.hibernate-orm.database.generation = ${5|update,drop-and-create,none,create,drop|}",
      "%dev.quarkus.datasource.username = ${6:user}",
      "%dev.quarkus.datasource.password = ${7:superSecret}",
      "%dev.quarkus.hibernate-orm.log.sql = true",
      ""
    ]
  },
  "Datasource MySQL": {
    "prefix": [
      "datasource-mysql"
    ],
    "description": "Add datasource to your configuration",
    "body": [
      "quarkus.datasource.db-kind = mysql",
      "quarkus.datasource.${1|jdbc,reactive|}.url = jdbc:mysql://${2:db}:${3:3306}/${4:db}",
      "quarkus.hibernate-orm.database.generation = ${5|update,drop-and-create,none,create,drop|}",
      "%dev.quarkus.datasource.username = ${6:user}",
      "%dev.quarkus.datasource.password = ${7:superSecret}",
      "%dev.quarkus.hibernate-orm.log.sql = true",
      ""
    ]
  },
  "Datasource MariaDB": {
    "prefix": [
      "datasource-mariadb"
    ],
    "description": "Add datasource to your configuration",
    "body": [
      "quarkus.datasource.db-kind = mariadb",
      "quarkus.datasource.${1|jdbc,reactive|}.url = jdbc:mariadb://${2:db}:${3:3306}/${4:db}",
      "quarkus.hibernate-orm.database.generation = ${5|update,drop-and-create,none,create,drop|}",
      "%dev.quarkus.datasource.username = ${6:user}",
      "%dev.quarkus.datasource.password = ${7:superSecret}",
      "%dev.quarkus.hibernate-orm.log.sql = true",
      ""
    ]
  },
  "Datasource Microsoft SQL Server": {
    "prefix": [
      "datasource-mssql"
    ],
    "description": "Add datasource to your configuration",
    "body": [
      "quarkus.datasource.db-kind = mssql",
      "quarkus.datasource.${1|jdbc,reactive|}.url = jdbc:sqlserver://${2:db}:${3:1433};databaseName=${4:db}",
      "quarkus.hibernate-orm.database.generation = ${5|update,drop-and-create,none,create,drop|}",
      "%dev.quarkus.datasource.username = ${6:user}",
      "%dev.quarkus.datasource.password = ${7:superSecret}",
      "%dev.quarkus.hibernate-orm.log.sql = true",
      ""
    ]
  },
  "Datasource Derby": {
    "prefix": [
      "datasource-derby"
    ],
    "description": "Add datasource to your configuration",
    "body": [
      "quarkus.datasource.db-kind = derby",
      "quarkus.datasource.jdbc.url = jdbc:derby:memory:${1:db};create=true",
      "%dev.quarkus.hibernate-orm.log.sql = true",
      ""
    ]
  }
}
